<svg xmlns="http://www.w3.org/2000/svg" width="19.697" height="19.676" viewBox="0 0 19.697 19.676">
  <g id="Group_2154" data-name="Group 2154" transform="translate(0)">
    <path id="Path_417" data-name="Path 417" d="M-1763.645,1825.518a9.8,9.8,0,0,1-2.971,7,9.525,9.525,0,0,1-6.9,2.818,9.511,9.511,0,0,1-6.913-2.856,9.521,9.521,0,0,1-2.913-7.114,9.515,9.515,0,0,1,2.994-6.929,9.515,9.515,0,0,1,6.885-2.776,9.529,9.529,0,0,1,6.894,2.866A9.811,9.811,0,0,1-1763.645,1825.518Zm-11.442,2.058c-.056-.051-.1-.086-.135-.124l-1.025-1.025q-.806-.806-1.611-1.613a.588.588,0,0,0-.322-.184.672.672,0,0,0-.618.2c-.267.274-.543.539-.808.815a1.182,1.182,0,0,0-.186.271.445.445,0,0,0,0,.435,1.34,1.34,0,0,0,.217.3q1.987,2,3.98,3.984l.064.063a.637.637,0,0,0,.816.056c.046-.038.093-.076.135-.119q3.577-3.576,7.152-7.155a1.359,1.359,0,0,0,.218-.3.452.452,0,0,0,0-.436.95.95,0,0,0-.153-.24c-.291-.3-.587-.594-.885-.887a.644.644,0,0,0-.767-.083,1.083,1.083,0,0,0-.16.136q-2.879,2.876-5.755,5.754C-1774.977,1827.472-1775.024,1827.516-1775.087,1827.576Z" transform="translate(1783.341 -1815.663)" fill="#78e090"/>
  </g>
</svg>
