<svg xmlns="http://www.w3.org/2000/svg" width="52.169" height="52.17" viewBox="0 0 52.169 52.17">
  <path id="brands-and-logotypes" d="M39.942,0H12.227A12.241,12.241,0,0,0,0,12.227V39.942A12.241,12.241,0,0,0,12.227,52.17H39.942A12.241,12.241,0,0,0,52.169,39.942V12.227A12.241,12.241,0,0,0,39.942,0Zm8.151,39.942a8.161,8.161,0,0,1-8.151,8.152H12.227a8.161,8.161,0,0,1-8.151-8.152V12.227a8.161,8.161,0,0,1,8.151-8.152H39.942a8.161,8.161,0,0,1,8.151,8.152ZM26.084,14.571A11.514,11.514,0,1,0,37.6,26.085,11.527,11.527,0,0,0,26.084,14.571Zm0,18.952a7.438,7.438,0,1,1,7.438-7.438A7.446,7.446,0,0,1,26.084,33.523ZM42.115,12.6a2.547,2.547,0,1,1-2.547-2.547A2.547,2.547,0,0,1,42.115,12.6Zm0,0" fill="#364697"/>
</svg>
