<svg xmlns="http://www.w3.org/2000/svg" width="25" height="25" viewBox="0 0 25 25">
  <path id="search" d="M20.9,19.123l6.725,6.725a1.261,1.261,0,1,1-1.784,1.782L19.12,20.905A10,10,0,1,1,20.9,19.123ZM13,20.5A7.5,7.5,0,1,0,5.5,13,7.5,7.5,0,0,0,13,20.5Z" transform="translate(-2.998 -3)" fill="#fff" fill-rule="evenodd"/>
</svg>
